…
Aside from being neat, we see something interesting - a new column titled “data”, which unsurprisingly is a list class. Looking at Newfoundland and Labrador’s dataframe can be done through the same operators as with lists: with [, [[, or $, which shows the ungrouped data, in this case of the province:

nested_census$data[[5]]

## # A tibble: 47 x 63
##    CTUID GEOGRAPHY CMANAME POP_PERC_CHANGE POP_DENSITY_KM2 PERC_POP_OVER_15
##    <chr> <chr>     <chr>             <dbl>           <dbl>            <dbl>
##  1 0010~ 0010017.~ St. Jo~            98              22.9             74.5
##  2 0010~ 0010202.~ St. Jo~           232.             81.8             82.9
##  3 0010~ 0010001.~ St. Jo~             3             204.              84.3
##  4 0010~ 0010200.~ St. Jo~            11.1            40.3             81.5
##  5 0010~ 0010200.~ St. Jo~            18.8           174               78.5
##  6 0010~ 0010172.~ St. Jo~            -7.5          1268               86.8
##  7 0010~ 0010300.~ St. Jo~             6.4           885.              81.7
##  8 0010~ 0010301.~ St. Jo~            13.1           299.              82.2
##  9 0010~ 0010003.~ St. Jo~            -1.7          2537               86.8
## 10 0010~ 0010015.~ St. Jo~             0.3          2997.              87.5
## # ... with 37 more rows, and 57 more variables: MEDIAN_AGE <dbl>,
## #   YEAR <int>, Population <dbl>, Participation <dbl>, UNEMPLOYMENT <dbl>,
## #   COMMUTE_TRANSIT <int>, COMMUTE_WALK <int>, COMMUTE_CYCLE <int>,
## #   COMMUTE_TIME <dbl>, NO_EDU <dbl>, HIGHSCHOOL <dbl>, UNIVERSITY <dbl>,
## #   COMMUTE_CAR <dbl>, COLLEGE <dbl>, MARRIED_COMMON <dbl>,
## #   NOT_MARRIED <dbl>, CHILDREN <dbl>, CHILDREN_AVG <dbl>,
## #   SINGLE_DETACHED <int>, APARTMENT_5_GREATER <int>, MOBILE_HOME <int>,
## #   SEMI_DET <int>, ROW_HOUSE <int>, APARTMENT1 <int>,
## #   APARTMENT_5_LESS <dbl>, PPL_IN_HOUSEHOLD <dbl>, ENGLISH <dbl>,
…
