…
Which creates an object, “plot3”, with nested dataframe containing the two variables as lists, grouped by the “Question” variable. One of these lists is the data from each question (e.g. responses by stakeholder), the other is the list of plots (here called as plot3$plot). To give a unique name matching the question, and ensure the names aren’t too long for a .png, I use map2() in the following way:

#map2(paste0(unique(str_trunc(plot3$Question, width = 10, ellipsis = "")), 
#            ".png"), plot3$plot, ggsave, width = 9, height = 5, unit = "in")

I can examine each graph and table individually using map2() again, to make sure everything is in order:

map2(plot3, "[", 1)

## $Question
## [1] "Question 1"
## 
## $data
## # A tibble: 27 x 5
##    stakeholder_group `Number of Resp~ Response percentage `Question == st~
##    <chr>                        <int> <chr>         <dbl> <lgl>           
##  1 Local NGO                       24 Strongl~       4.17 TRUE            
##  2 International NGO               30 Disagree      20    TRUE            
##  3 UN Agency                       30 Disagree       3.33 TRUE            
##  4 Local NGO                       24 Disagree       8.33 TRUE            
##  5 EU Agency                       21 Disagree      23.8  TRUE            
##  6 EU Member State                 11 Disagree       9.09 TRUE            
##  7 Other EU                         5 Disagree      20    TRUE            
##  8 International NGO               30 Do not ~      16.7  TRUE            
##  9 UN Agency                       30 Do not ~       6.67 TRUE            
## 10 EU Agency                       21 Do not ~      14.3  TRUE            
## # ... with 17 more rows
## 
## $plot
…
