…
13

Using the results from the country_sample column, I can then select the random sample, which extracts a random sample of the amounts given using a mapped sample_n() function. each time this is run, it extracts a new random sample, but always with the same given count.

Portfolio %>% 
  arrange(Region) %>% 
  group_by(Region) %>% 
  nest() %>% 
  mutate(n = c(7,0,9,1,13),
         samp = map2(data, n, sample_n)) %>% 
  select(Region, samp) %>% 
  unnest() 

## # A tibble: 30 x 5
##    Region  `Final Duration\… Countries   `Fragile Contex… `Original Budge…
##    <chr>               <dbl> <chr>       <chr>                       <dbl>
##  1 Asia                   38 India       no                         594100
##  2 Asia                   24 <NA>        <NA>                       239000
##  3 Asia                   24 India, Nep… yes                        200000
##  4 Asia                   24 Indonesia   no                         463000
##  5 Asia                   36 Pakistan    yes                        650000
##  6 Asia                   30 Indonesia,… yes                        660600
##  7 Asia                   24 India, Nep… yes                        268900
##  8 Latin …                24 "Bolivia, … no                         505900
##  9 Latin …                14 Chile       no                         356500
## 10 Latin …                24 Argentina,… yes                        250000
## # ... with 20 more rows
…
